-------------------------------------------------------------------------------
Test set: edu.baylor.ecs.si.Tester
-------------------------------------------------------------------------------
Tests run: 3, Failures: 0, Errors: 0, Skipped: 0, Time elapsed: 1.084 sec - in edu.baylor.ecs.si.Tester
